{
  "vision": 0,
  "defense": 3,
  "capturePoints": 20,
  "funds": 1000,
  "supply": [
    "SHIP",
    "WATER_TRANSPORT"
  ],
  "repairs": {
    "SHIP": 2,
    "WATER_TRANSPORT": 2
  },
  "builds": [
    "SHIP",
    "WATER_TRANSPORT"
  ]
}