{
  "cost": 12000,
  "range": 6,
  "movetype": "MVWT",
  "vision": 1,
  "fuel": 99,
  "dailyFuelDrain": 1,
  "ammo": 0,
  "maxloads": 1,
  "canload": [
    "MVIN",
    "MVME",
    "MVTA",
    "MVTK"
  ]
}