{
  "cost": 7000,
  "range": 6,
  "movetype": "MVTK",
  "vision": 3,
  "fuel": 70,
  "ammo": 9,
  "attack": {
    "main_wp": {
      "RECN": 85,
      "TNTK": 55,
      "MDTK": 15,
      "NTNK": 15,
      "WRTK": 10,
      "APCR": 75,
      "ARTY": 70,
      "RCKT": 85,
      "AAIR": 65,
      "MISS": 85,
      "PIPR": 55,
      "OOZM": 20,
      "CRUS": 5,
      "SUBM": 1,
      "BSHP": 1,
      "ACAR": 1,
      "LNDR": 10,
      "BLBT": 10
    },
    "sec_wp": {
      "INFT": 75,
      "MECH": 70,
      "RECN": 40,
      "TNTK": 6,
      "MDTK": 1,
      "NTNK": 1,
      "WRTK": 1,
      "APCR": 45,
      "ARTY": 45,
      "RCKT": 55,
      "AAIR": 6,
      "MISS": 30,
      "PIPR": 6,
      "OOZM": 20,
      "BCTR": 10,
      "TCTR": 40
    }
  }
}